[
  {
    "codeDepartement": 67,
    "insee": 678,
    "name": "Arrondissement de Strasbourg",
    "chieftown": "Strasbourg",
    "population": 491409,
    "densite": 338,
    "superficie": 1429,
    "communes": 33,
    "habitants": "strasbourgeois"
  },
  {
    "codeDepartement": "01",
    "insee": 11,
    "name": "Arrondissement de Belley",
    "chieftown": "Belley",
    "population": 120594,
    "densite": 1307,
    "superficie": 74,
    "communes": 101,
    "habitants": "belleysans"
  },
  {
    "codeDepartement": "01",
    "insee": 12,
    "name": "Arrondissement de Bourg-en-Bresse",
    "chieftown": "Bourg-en-Bresse",
    "population": 331400,
    "densite": 3105,
    "superficie": 113,
    "communes": 218,
    "habitants": "Burgiens"
  },
  {
    "codeDepartement": "01",
    "insee": 13,
    "name": "Arrondissement de Gex",
    "chieftown": "Gex",
    "population": 93027,
    "densite": 426,
    "superficie": 205,
    "communes": 29,
    "habitants": "Gessiens"
  },
  {
    "codeDepartement": "01",
    "insee": 14,
    "name": "Arrondissement de Nantua",
    "chieftown": "Nantua",
    "population": 93404,
    "densite": 924,
    "superficie": 92,
    "communes": 62,
    "habitants": "Nantuatiens"
  },
  {
    "codeDepartement": "02",
    "insee": 21,
    "name": "Arrondissement de Château-Thierry",
    "chieftown": "Château-Thierry",
    "population": 69836,
    "densite": 1193,
    "superficie": 61,
    "communes": 118,
    "habitants": "Castelthéodoriciens"
  },
  {
    "codeDepartement": "02",
    "insee": 22,
    "name": "Arrondissement de Laon",
    "chieftown": "Laon",
    "population": 157371,
    "densite": 2461,
    "superficie": 67,
    "communes": 278,
    "habitants": "Laonnois"
  },
  {
    "codeDepartement": "02",
    "insee": 23,
    "name": "Arrondissement de Saint-Quentin",
    "chieftown": "Saint-Quentin",
    "population": 129028,
    "densite": 1071,
    "superficie": 122,
    "communes": 126,
    "habitants": "Saint-Quentinois"
  },
  {
    "codeDepartement": "02",
    "insee": 24,
    "name": "Arrondissement de Soissons",
    "chieftown": "Soissons",
    "population": 107744,
    "densite": 1243,
    "superficie": 84,
    "communes": 153,
    "habitants": "Soissonnais"
  },
  {
    "codeDepartement": "02",
    "insee": 25,
    "name": "Arrondissement de Vervins",
    "chieftown": "Vervins",
    "population": 72157,
    "densite": 1401,
    "superficie": 48,
    "communes": 130,
    "habitants": "Vervinois"
  },
  {
    "codeDepartement": "03",
    "insee": 31,
    "name": "Arrondissement de Montluçon",
    "chieftown": "Montluçon",
    "population": 108364,
    "densite": 2328,
    "superficie": 50,
    "communes": 104,
    "habitants": "Montluçonnais"
  },
  {
    "codeDepartement": "03",
    "insee": 32,
    "name": "Arrondissement de Moulins",
    "chieftown": "Moulins",
    "population": 106124,
    "densite": 2996,
    "superficie": 35,
    "communes": 111,
    "habitants": "Moulinois"
  },
  {
    "codeDepartement": "03",
    "insee": 33,
    "name": "Arrondissement de Vichy",
    "chieftown": "Vichy",
    "population": 124896,
    "densite": 2016,
    "superficie": 61,
    "communes": 103,
    "habitants": "Vichyssois"
  },
  {
    "codeDepartement": "04",
    "insee": 41,
    "name": "Arrondissement de Barcelonnette",
    "chieftown": "Barcelonnette",
    "population": 7874,
    "densite": 1028,
    "superficie": 8,
    "communes": 15,
    "habitants": "Barcelonnettes"
  },
  {
    "codeDepartement": "04",
    "insee": 42,
    "name": "Arrondissement de Castellane",
    "chieftown": "Castellane",
    "population": 11403,
    "densite": 1320,
    "superficie": 7,
    "communes": 32,
    "habitants": "Castellanais"
  },
  {
    "codeDepartement": "04",
    "insee": 43,
    "name": "Arrondissement de Digne-les-Bains",
    "chieftown": "Digne-les-Bains",
    "population": 47298,
    "densite": 2465,
    "superficie": 23,
    "communes": 65,
    "habitants": "Dignois"
  },
  {
    "codeDepartement": "04",
    "insee": 44,
    "name": "Arrondissement de Forcalquier",
    "chieftown": "Forcalquier",
    "population": 95990,
    "densite": 2112,
    "superficie": 42,
    "communes": 87,
    "habitants": "Forcalquiérens"
  },
  {
    "codeDepartement": "05",
    "insee": 51,
    "name": "Arrondissement de Briançon",
    "chieftown": "Briançon",
    "population": 35266,
    "densite": 2138,
    "superficie": 17,
    "communes": 38,
    "habitants": "Briançonnais"
  },
  {
    "codeDepartement": "05",
    "insee": 52,
    "name": "Arrondissement de Gap",
    "chieftown": "Gap",
    "population": 105841,
    "densite": 3411,
    "superficie": 30,
    "communes": 130,
    "habitants": "Gapençais"
  },
  {
    "codeDepartement": "06",
    "insee": 61,
    "name": "Arrondissement de Grasse",
    "chieftown": "Grasse",
    "population": 561067,
    "densite": 1231,
    "superficie": 455,
    "communes": 62,
    "habitants": "Grassois"
  },
  {
    "codeDepartement": "06",
    "insee": 62,
    "name": "Arrondissement de Nice",
    "chieftown": "Nice",
    "population": 522637,
    "densite": 3067,
    "superficie": 170,
    "communes": 101,
    "habitants": "Niçois"
  },
  {
    "codeDepartement": "07",
    "insee": 71,
    "name": "Arrondissement de Largentière",
    "chieftown": "Largentière",
    "population": 101490,
    "densite": 2509,
    "superficie": 39,
    "communes": 148,
    "habitants": "Largentiérois"
  },
  {
    "codeDepartement": "07",
    "insee": 72,
    "name": "Arrondissement de Privas",
    "chieftown": "Privas",
    "population": 84907,
    "densite": 1160,
    "superficie": 75,
    "communes": 65,
    "habitants": ""
  },
  {
    "codeDepartement": "07",
    "insee": 73,
    "name": "Arrondissement de Tournon-sur-Rhône",
    "chieftown": "Tournon-sur-Rhône",
    "population": 138760,
    "densite": 1858,
    "superficie": 73,
    "communes": 126,
    "habitants": ""
  },
  {
    "codeDepartement": "08",
    "insee": 81,
    "name": "Arrondissement de Charleville-Mézières",
    "chieftown": "Charleville-Mézières",
    "population": 158005,
    "densite": 1825,
    "superficie": 89,
    "communes": 160,
    "habitants": ""
  },
  {
    "codeDepartement": "08",
    "insee": 82,
    "name": "Arrondissement de Rethel",
    "chieftown": "Rethel",
    "population": 37384,
    "densite": 1200,
    "superficie": 31,
    "communes": 101,
    "habitants": ""
  },
  {
    "codeDepartement": "08",
    "insee": 83,
    "name": "Arrondissement de Sedan",
    "chieftown": "Sedan",
    "population": 58136,
    "densite": 792,
    "superficie": 76,
    "communes": 76,
    "habitants": ""
  },
  {
    "codeDepartement": "08",
    "insee": 84,
    "name": "Arrondissement de Vouziers",
    "chieftown": "Vouziers",
    "population": 21846,
    "densite": 1412,
    "superficie": 16,
    "communes": 120,
    "habitants": ""
  },
  {
    "codeDepartement": "09",
    "insee": 91,
    "name": "Arrondissement de Foix",
    "chieftown": "Foix",
    "population": 47572,
    "densite": 2078,
    "superficie": 25,
    "communes": 135,
    "habitants": ""
  },
  {
    "codeDepartement": "09",
    "insee": 92,
    "name": "Arrondissement de Pamiers",
    "chieftown": "Pamiers",
    "population": 64938,
    "densite": 1315,
    "superficie": 56,
    "communes": 115,
    "habitants": ""
  },
  {
    "codeDepartement": "09",
    "insee": 93,
    "name": "Arrondissement de Saint-Girons",
    "chieftown": "Saint-Girons",
    "population": 40557,
    "densite": 1497,
    "superficie": 18,
    "communes": 82,
    "habitants": ""
  },
  {
    "codeDepartement": 10,
    "insee": 101,
    "name": "Arrondissement de Bar-sur-Aube",
    "chieftown": "Bar-sur-Aube",
    "population": 28759,
    "densite": 1193,
    "superficie": 24,
    "communes": 104,
    "habitants": ""
  },
  {
    "codeDepartement": 10,
    "insee": 102,
    "name": "Arrondissement de Nogent-sur-Seine",
    "chieftown": "Nogent-sur-Seine",
    "population": 54067,
    "densite": 1277,
    "superficie": 43,
    "communes": 82,
    "habitants": ""
  },
  {
    "codeDepartement": 10,
    "insee": 103,
    "name": "Arrondissement de Troyes",
    "chieftown": "Troyes",
    "population": 226084,
    "densite": 3534,
    "superficie": 63,
    "communes": 245,
    "habitants": ""
  },
  {
    "codeDepartement": 11,
    "insee": 111,
    "name": "Arrondissement de Carcassonne",
    "chieftown": "Carcassonne",
    "population": 159539,
    "densite": 2668,
    "superficie": 61,
    "communes": 207,
    "habitants": ""
  },
  {
    "codeDepartement": 11,
    "insee": 112,
    "name": "Arrondissement de Limoux",
    "chieftown": "Limoux",
    "population": 42546,
    "densite": 1781,
    "superficie": 25,
    "communes": 147,
    "habitants": ""
  },
  {
    "codeDepartement": 11,
    "insee": 113,
    "name": "Arrondissement de Narbonne",
    "chieftown": "Narbonne",
    "population": 165940,
    "densite": 1690,
    "superficie": 94,
    "communes": 82,
    "habitants": ""
  },
  {
    "codeDepartement": 12,
    "insee": 121,
    "name": "Arrondissement de Millau",
    "chieftown": "Millau",
    "population": 79346,
    "densite": 3467,
    "superficie": 21,
    "communes": 97,
    "habitants": ""
  },
  {
    "codeDepartement": 12,
    "insee": 122,
    "name": "Arrondissement de Rodez",
    "chieftown": "Rodez",
    "population": 111180,
    "densite": 3974,
    "superficie": 36,
    "communes": 127,
    "habitants": ""
  },
  {
    "codeDepartement": 12,
    "insee": 123,
    "name": "Arrondissement de Villefranche-de-Rouergue",
    "chieftown": "Villefranche-de-Rouergue",
    "population": 88171,
    "densite": 1293,
    "superficie": 50,
    "communes": 62,
    "habitants": ""
  },
  {
    "codeDepartement": 13,
    "insee": 131,
    "name": "Arrondissement d'Aix-en-Provence",
    "chieftown": "Aix-en-Provence",
    "population": 450153,
    "densite": 1532,
    "superficie": 278,
    "communes": 44,
    "habitants": "Aixois"
  },
  {
    "codeDepartement": 13,
    "insee": 132,
    "name": "Arrondissement d'Arles",
    "chieftown": "Arles",
    "population": 171684,
    "densite": 2284,
    "superficie": 89,
    "communes": 36,
    "habitants": "Arlésiens"
  },
  {
    "codeDepartement": 13,
    "insee": 134,
    "name": "Arrondissement d'Istres",
    "chieftown": "Istres",
    "population": 327971,
    "densite": 599,
    "superficie": 517,
    "communes": 18,
    "habitants": "Istréens"
  },
  {
    "codeDepartement": 13,
    "insee": 133,
    "name": "Arrondissement de Marseille",
    "chieftown": "Marseille",
    "population": 1069909,
    "densite": 672,
    "superficie": 1570,
    "communes": 21,
    "habitants": "Marseillais"
  },
  {
    "codeDepartement": 14,
    "insee": 141,
    "name": "Arrondissement de Bayeux",
    "chieftown": "Bayeux",
    "population": 73896,
    "densite": 952,
    "superficie": 72,
    "communes": 125,
    "habitants": ""
  },
  {
    "codeDepartement": 14,
    "insee": 142,
    "name": "Arrondissement de Caen",
    "chieftown": "Caen",
    "population": 384540,
    "densite": 1990,
    "superficie": 210,
    "communes": 278,
    "habitants": "Caennais"
  },
  {
    "codeDepartement": 14,
    "insee": 143,
    "name": "Arrondissement de Lisieux",
    "chieftown": "Lisieux",
    "population": 162678,
    "densite": 1650,
    "superficie": 89,
    "communes": 175,
    "habitants": ""
  },
  {
    "codeDepartement": 14,
    "insee": 144,
    "name": "Arrondissement de Vire",
    "chieftown": "Vire Normandie",
    "population": 72565,
    "densite": 956,
    "superficie": 60,
    "communes": 43,
    "habitants": ""
  },
  {
    "codeDepartement": 15,
    "insee": 151,
    "name": "Arrondissement d'Aurillac",
    "chieftown": "Aurillac",
    "population": 82391,
    "densite": 1937,
    "superficie": 43,
    "communes": 94,
    "habitants": ""
  },
  {
    "codeDepartement": 15,
    "insee": 152,
    "name": "Arrondissement de Mauriac",
    "chieftown": "Mauriac",
    "population": 25881,
    "densite": 1278,
    "superficie": 21,
    "communes": 55,
    "habitants": ""
  },
  {
    "codeDepartement": 15,
    "insee": 153,
    "name": "Arrondissement de Saint-Flour",
    "chieftown": "Saint-Flour",
    "population": 37697,
    "densite": 2511,
    "superficie": 15,
    "communes": 106,
    "habitants": ""
  },
  {
    "codeDepartement": 16,
    "insee": 161,
    "name": "Arrondissement d'Angoulême",
    "chieftown": "Angoulême",
    "population": 181456,
    "densite": 2217,
    "superficie": 89,
    "communes": 150,
    "habitants": ""
  },
  {
    "codeDepartement": 16,
    "insee": 162,
    "name": "Arrondissement de Cognac",
    "chieftown": "Cognac",
    "population": 99987,
    "densite": 1470,
    "superficie": 63,
    "communes": 108,
    "habitants": ""
  },
  {
    "codeDepartement": 16,
    "insee": 163,
    "name": "Arrondissement de Confolens",
    "chieftown": "Confolens",
    "population": 71845,
    "densite": 2269,
    "superficie": 28,
    "communes": 138,
    "habitants": ""
  },
  {
    "codeDepartement": 17,
    "insee": 171,
    "name": "Arrondissement de Jonzac",
    "chieftown": "Jonzac",
    "population": 67989,
    "densite": 1530,
    "superficie": 37,
    "communes": 112,
    "habitants": ""
  },
  {
    "codeDepartement": 17,
    "insee": 172,
    "name": "Arrondissement de Rochefort",
    "chieftown": "Rochefort",
    "population": 189875,
    "densite": 1528,
    "superficie": 123,
    "communes": 79,
    "habitants": ""
  },
  {
    "codeDepartement": 17,
    "insee": 173,
    "name": "Arrondissement de La Rochelle",
    "chieftown": "La Rochelle",
    "population": 215707,
    "densite": 818,
    "superficie": 254,
    "communes": 57,
    "habitants": ""
  },
  {
    "codeDepartement": 17,
    "insee": 174,
    "name": "Arrondissement de Saintes",
    "chieftown": "Saintes",
    "population": 116057,
    "densite": 1546,
    "superficie": 83,
    "communes": 107,
    "habitants": ""
  },
  {
    "codeDepartement": 17,
    "insee": 175,
    "name": "Arrondissement de Saint-Jean-d'Angély",
    "chieftown": "Saint-Jean-d'Angély",
    "population": 52563,
    "densite": 1442,
    "superficie": 37,
    "communes": 114,
    "habitants": ""
  },
  {
    "codeDepartement": 18,
    "insee": 181,
    "name": "Arrondissement de Bourges",
    "chieftown": "Bourges",
    "population": 173054,
    "densite": 2798,
    "superficie": 62,
    "communes": 131,
    "habitants": ""
  },
  {
    "codeDepartement": 18,
    "insee": 182,
    "name": "Arrondissement de Saint-Amand-Montrond",
    "chieftown": "Saint-Amand-Montrond",
    "population": 63921,
    "densite": 2670,
    "superficie": 25,
    "communes": 116,
    "habitants": ""
  },
  {
    "codeDepartement": 18,
    "insee": 183,
    "name": "Arrondissement de Vierzon",
    "chieftown": "Vierzon",
    "population": 70135,
    "densite": 1767,
    "superficie": 40,
    "communes": 43,
    "habitants": ""
  },
  {
    "codeDepartement": 19,
    "insee": 191,
    "name": "Arrondissement de Brive-la-Gaillarde",
    "chieftown": "Brive-la-Gaillarde",
    "population": 128863,
    "densite": 1526,
    "superficie": 85,
    "communes": 98,
    "habitants": ""
  },
  {
    "codeDepartement": 19,
    "insee": 192,
    "name": "Arrondissement de Tulle",
    "chieftown": "Tulle",
    "population": 70741,
    "densite": 2564,
    "superficie": 31,
    "communes": 118,
    "habitants": ""
  },
  {
    "codeDepartement": 19,
    "insee": 193,
    "name": "Arrondissement d'Ussel",
    "chieftown": "Ussel",
    "population": 41931,
    "densite": 1766,
    "superficie": 19,
    "communes": 69,
    "habitants": ""
  },
  {
    "codeDepartement": "2A",
    "insee": "2A1",
    "name": "Arrondissement d'Ajaccio",
    "chieftown": "Ajaccio",
    "population": 113473,
    "densite": 2195,
    "superficie": 50,
    "communes": 80,
    "habitants": ""
  },
  {
    "codeDepartement": "2A",
    "insee": "2A4",
    "name": "Arrondissement de Sartène",
    "chieftown": "Sartène",
    "population": 40830,
    "densite": 1819,
    "superficie": 22,
    "communes": 44,
    "habitants": ""
  },
  {
    "codeDepartement": "2B",
    "insee": "2B2",
    "name": "Arrondissement de Bastia",
    "chieftown": "Bastia",
    "population": 87776,
    "densite": 474,
    "superficie": 178,
    "communes": 27,
    "habitants": ""
  },
  {
    "codeDepartement": "2B",
    "insee": "2B5",
    "name": "Arrondissement de Calvi",
    "chieftown": "Calvi",
    "population": 29576,
    "densite": 1336,
    "superficie": 22,
    "communes": 51,
    "habitants": ""
  },
  {
    "codeDepartement": "2B",
    "insee": "2B3",
    "name": "Arrondissement de Corte",
    "chieftown": "Corte",
    "population": 58800,
    "densite": 2854,
    "superficie": 20,
    "communes": 158,
    "habitants": ""
  },
  {
    "codeDepartement": 21,
    "insee": 211,
    "name": "Arrondissement de Beaune",
    "chieftown": "Beaune",
    "population": 111295,
    "densite": 2118,
    "superficie": 46,
    "communes": 193,
    "habitants": ""
  },
  {
    "codeDepartement": 21,
    "insee": 212,
    "name": "Arrondissement de Dijon",
    "chieftown": "Dijon",
    "population": 361844,
    "densite": 3049,
    "superficie": 122,
    "communes": 259,
    "habitants": "Dijonnais"
  },
  {
    "codeDepartement": 21,
    "insee": 213,
    "name": "Arrondissement de Montbard",
    "chieftown": "Montbard",
    "population": 60074,
    "densite": 3596,
    "superficie": 17,
    "communes": 253,
    "habitants": ""
  },
  {
    "codeDepartement": 22,
    "insee": 221,
    "name": "Arrondissement de Dinan",
    "chieftown": "Dinan",
    "population": 102698,
    "densite": 1755,
    "superficie": 74,
    "communes": 95,
    "habitants": ""
  },
  {
    "codeDepartement": 22,
    "insee": 222,
    "name": "Arrondissement de Guingamp",
    "chieftown": "Guingamp",
    "population": 125567,
    "densite": 1966,
    "superficie": 45,
    "communes": 90,
    "habitants": ""
  },
  {
    "codeDepartement": 22,
    "insee": 223,
    "name": "Arrondissement de Lannion",
    "chieftown": "Lannion",
    "population": 99903,
    "densite": 904,
    "superficie": 111,
    "communes": 60,
    "habitants": ""
  },
  {
    "codeDepartement": 22,
    "insee": 224,
    "name": "Arrondissement de Saint-Brieuc",
    "chieftown": "Saint-Brieuc",
    "population": 270785,
    "densite": 2252,
    "superficie": 124,
    "communes": 117,
    "habitants": "Briochin"
  },
  {
    "codeDepartement": 23,
    "insee": 231,
    "name": "Arrondissement d'Aubusson",
    "chieftown": "Aubusson",
    "population": 44680,
    "densite": 2539,
    "superficie": 15,
    "communes": 118,
    "habitants": ""
  },
  {
    "codeDepartement": 23,
    "insee": 232,
    "name": "Arrondissement de Guéret",
    "chieftown": "Guéret",
    "population": 74822,
    "densite": 3027,
    "superficie": 28,
    "communes": 141,
    "habitants": ""
  },
  {
    "codeDepartement": 24,
    "insee": 241,
    "name": "Arrondissement de Bergerac",
    "chieftown": "Bergerac",
    "population": 102859,
    "densite": 2182,
    "superficie": 51,
    "communes": 157,
    "habitants": ""
  },
  {
    "codeDepartement": 24,
    "insee": 242,
    "name": "Arrondissement de Nontron",
    "chieftown": "Nontron",
    "population": 54758,
    "densite": 1621,
    "superficie": 25,
    "communes": 80,
    "habitants": ""
  },
  {
    "codeDepartement": 24,
    "insee": 243,
    "name": "Arrondissement de Périgueux",
    "chieftown": "Périgueux",
    "population": 175309,
    "densite": 3337,
    "superficie": 57,
    "communes": 190,
    "habitants": ""
  },
  {
    "codeDepartement": 24,
    "insee": 244,
    "name": "Arrondissement de Sarlat-la-Canéda",
    "chieftown": "Sarlat-la-Canéda",
    "population": 81863,
    "densite": 1921,
    "superficie": 39,
    "communes": 120,
    "habitants": ""
  },
  {
    "codeDepartement": 25,
    "insee": 251,
    "name": "Arrondissement de Besançon",
    "chieftown": "Besançon",
    "population": 249211,
    "densite": 1943,
    "superficie": 128,
    "communes": 265,
    "habitants": ""
  },
  {
    "codeDepartement": 25,
    "insee": 252,
    "name": "Arrondissement de Montbéliard",
    "chieftown": "Montbéliard",
    "population": 176425,
    "densite": 1444,
    "superficie": 141,
    "communes": 170,
    "habitants": ""
  },
  {
    "codeDepartement": 25,
    "insee": 253,
    "name": "Arrondissement de Pontarlier",
    "chieftown": "Pontarlier",
    "population": 112913,
    "densite": 2035,
    "superficie": 53,
    "communes": 155,
    "habitants": ""
  },
  {
    "codeDepartement": 26,
    "insee": 261,
    "name": "Arrondissement de Die",
    "chieftown": "Die",
    "population": 67036,
    "densite": 2287,
    "superficie": 19,
    "communes": 103,
    "habitants": ""
  },
  {
    "codeDepartement": 26,
    "insee": 262,
    "name": "Arrondissement de Nyons",
    "chieftown": "Nyons",
    "population": 148049,
    "densite": 2358,
    "superficie": 60,
    "communes": 142,
    "habitants": ""
  },
  {
    "codeDepartement": 26,
    "insee": 263,
    "name": "Arrondissement de Valence",
    "chieftown": "Valence",
    "population": 292921,
    "densite": 1884,
    "superficie": 165,
    "communes": 122,
    "habitants": "Valentinois"
  },
  {
    "codeDepartement": 27,
    "insee": 271,
    "name": "Arrondissement des Andelys",
    "chieftown": "Les Andelys",
    "population": 235732,
    "densite": 1573,
    "superficie": 115,
    "communes": 158,
    "habitants": ""
  },
  {
    "codeDepartement": 27,
    "insee": 272,
    "name": "Arrondissement de Bernay",
    "chieftown": "Bernay",
    "population": 227054,
    "densite": 2178,
    "superficie": 77,
    "communes": 243,
    "habitants": ""
  },
  {
    "codeDepartement": 27,
    "insee": 273,
    "name": "Arrondissement de Évreux",
    "chieftown": "Évreux",
    "population": 140039,
    "densite": 2289,
    "superficie": 108,
    "communes": 216,
    "habitants": ""
  },
  {
    "codeDepartement": 28,
    "insee": 281,
    "name": "Arrondissement de Chartres",
    "chieftown": "Chartres",
    "population": 209218,
    "densite": 2130,
    "superficie": 97,
    "communes": 152,
    "habitants": ""
  },
  {
    "codeDepartement": 28,
    "insee": 282,
    "name": "Arrondissement de Châteaudun",
    "chieftown": "Châteaudun",
    "population": 59262,
    "densite": 1439,
    "superficie": 42,
    "communes": 80,
    "habitants": ""
  },
  {
    "codeDepartement": 28,
    "insee": 283,
    "name": "Arrondissement de Dreux",
    "chieftown": "Dreux",
    "population": 129414,
    "densite": 1501,
    "superficie": 86,
    "communes": 108,
    "habitants": ""
  },
  {
    "codeDepartement": 28,
    "insee": 284,
    "name": "Arrondissement de Nogent-le-Rotrou",
    "chieftown": "Nogent-le-Rotrou",
    "population": 36035,
    "densite": 811,
    "superficie": 46,
    "communes": 52,
    "habitants": ""
  },
  {
    "codeDepartement": 29,
    "insee": 291,
    "name": "Arrondissement de Brest",
    "chieftown": "Brest",
    "population": 374276,
    "densite": 1408,
    "superficie": 263,
    "communes": 80,
    "habitants": "Brestois"
  },
  {
    "codeDepartement": 29,
    "insee": 292,
    "name": "Arrondissement de Châteaulin",
    "chieftown": "Châteaulin",
    "population": 82403,
    "densite": 1804,
    "superficie": 48,
    "communes": 61,
    "habitants": ""
  },
  {
    "codeDepartement": 29,
    "insee": 293,
    "name": "Arrondissement de Morlaix",
    "chieftown": "Morlaix",
    "population": 128830,
    "densite": 1319,
    "superficie": 98,
    "communes": 59,
    "habitants": ""
  },
  {
    "codeDepartement": 29,
    "insee": 294,
    "name": "Arrondissement de Quimper",
    "chieftown": "Quimper",
    "population": 322740,
    "densite": 2202,
    "superficie": 145,
    "communes": 81,
    "habitants": "Quimpérois"
  },
  {
    "codeDepartement": 30,
    "insee": 301,
    "name": "Arrondissement d'Alès",
    "chieftown": "Alès",
    "population": 148139,
    "densite": 1322,
    "superficie": 115,
    "communes": 101,
    "habitants": ""
  },
  {
    "codeDepartement": 30,
    "insee": 302,
    "name": "Arrondissement de Nîmes",
    "chieftown": "Nîmes",
    "population": 554624,
    "densite": 3133,
    "superficie": 174,
    "communes": 177,
    "habitants": "Nîmois"
  },
  {
    "codeDepartement": 30,
    "insee": 303,
    "name": "Arrondissement du Vigan",
    "chieftown": "Le Vigan",
    "population": 39243,
    "densite": 1398,
    "superficie": 26,
    "communes": 75,
    "habitants": ""
  },
  {
    "codeDepartement": 31,
    "insee": 311,
    "name": "Arrondissement de Muret",
    "chieftown": "Muret",
    "population": 220791,
    "densite": 1639,
    "superficie": 130,
    "communes": 126,
    "habitants": ""
  },
  {
    "codeDepartement": 31,
    "insee": 312,
    "name": "Arrondissement de Saint-Gaudens",
    "chieftown": "Saint-Gaudens",
    "population": 77444,
    "densite": 2140,
    "superficie": 36,
    "communes": 237,
    "habitants": ""
  },
  {
    "codeDepartement": 31,
    "insee": 313,
    "name": "Arrondissement de Toulouse",
    "chieftown": "Toulouse",
    "population": 1049948,
    "densite": 2531,
    "superficie": 398,
    "communes": 226,
    "habitants": "Toulousain"
  },
  {
    "codeDepartement": 32,
    "insee": 321,
    "name": "Arrondissement d'Auch",
    "chieftown": "Auch",
    "population": 81242,
    "densite": 2134,
    "superficie": 41,
    "communes": 154,
    "habitants": ""
  },
  {
    "codeDepartement": 32,
    "insee": 322,
    "name": "Arrondissement de Condom",
    "chieftown": "Condom",
    "population": 67137,
    "densite": 2437,
    "superficie": 27,
    "communes": 158,
    "habitants": ""
  },
  {
    "codeDepartement": 32,
    "insee": 323,
    "name": "Arrondissement de Mirande",
    "chieftown": "Mirande",
    "population": 42285,
    "densite": 1686,
    "superficie": 23,
    "communes": 150,
    "habitants": ""
  },
  {
    "codeDepartement": 33,
    "insee": 336,
    "name": "Arrondissement d'Arcachon",
    "chieftown": "Arcachon",
    "population": 150979,
    "densite": 1469,
    "superficie": 98,
    "communes": 17,
    "habitants": ""
  },
  {
    "codeDepartement": 33,
    "insee": 331,
    "name": "Arrondissement de Blaye",
    "chieftown": "Blaye",
    "population": 90090,
    "densite": 783,
    "superficie": 112,
    "communes": 63,
    "habitants": ""
  },
  {
    "codeDepartement": 33,
    "insee": 332,
    "name": "Arrondissement de Bordeaux",
    "chieftown": "Bordeaux",
    "population": 950099,
    "densite": 1522,
    "superficie": 597,
    "communes": 82,
    "habitants": "Bordelais"
  },
  {
    "codeDepartement": 33,
    "insee": 333,
    "name": "Arrondissement de Langon",
    "chieftown": "Langon",
    "population": 132346,
    "densite": 2644,
    "superficie": 49,
    "communes": 198,
    "habitants": ""
  },
  {
    "codeDepartement": 33,
    "insee": 334,
    "name": "Arrondissement de Lesparre-Médoc",
    "chieftown": "Lesparre-Médoc",
    "population": 89098,
    "densite": 2273,
    "superficie": 38,
    "communes": 51,
    "habitants": ""
  },
  {
    "codeDepartement": 33,
    "insee": 335,
    "name": "Arrondissement de Libourne",
    "chieftown": "Libourne",
    "population": 154067,
    "densite": 1283,
    "superficie": 118,
    "communes": 129,
    "habitants": ""
  },
  {
    "codeDepartement": 34,
    "insee": 341,
    "name": "Arrondissement de Béziers",
    "chieftown": "Béziers",
    "population": 309800,
    "densite": 2987,
    "superficie": 103,
    "communes": 152,
    "habitants": "Biterrois"
  },
  {
    "codeDepartement": 34,
    "insee": 342,
    "name": "Arrondissement de Lodève",
    "chieftown": "Lodève",
    "population": 138746,
    "densite": 1818,
    "superficie": 51,
    "communes": 98,
    "habitants": ""
  },
  {
    "codeDepartement": 34,
    "insee": 343,
    "name": "Arrondissement de Montpellier",
    "chieftown": "Montpellier",
    "population": 683935,
    "densite": 1295,
    "superficie": 533,
    "communes": 93,
    "habitants": "Montpelliérain"
  },
  {
    "codeDepartement": 35,
    "insee": 351,
    "name": "Arrondissement de Fougères-Vitré",
    "chieftown": "Fougères",
    "population": 184039,
    "densite": 2152,
    "superficie": 83,
    "communes": 116,
    "habitants": ""
  },
  {
    "codeDepartement": 35,
    "insee": 352,
    "name": "Arrondissement de Redon",
    "chieftown": "Redon",
    "population": 102157,
    "densite": 1335,
    "superficie": 79,
    "communes": 52,
    "habitants": ""
  },
  {
    "codeDepartement": 35,
    "insee": 353,
    "name": "Arrondissement de Rennes",
    "chieftown": "Rennes",
    "population": 599717,
    "densite": 2330,
    "superficie": 250,
    "communes": 119,
    "habitants": "Rennais"
  },
  {
    "codeDepartement": 35,
    "insee": 354,
    "name": "Arrondissement de Saint-Malo",
    "chieftown": "Saint-Malo",
    "population": 165866,
    "densite": 958,
    "superficie": 162,
    "communes": 63,
    "habitants": ""
  },
  {
    "codeDepartement": 36,
    "insee": 361,
    "name": "Arrondissement du Blanc",
    "chieftown": "Le Blanc",
    "population": 31714,
    "densite": 1761,
    "superficie": 18,
    "communes": 56,
    "habitants": ""
  },
  {
    "codeDepartement": 36,
    "insee": 362,
    "name": "Arrondissement de Châteauroux",
    "chieftown": "Châteauroux",
    "population": 129106,
    "densite": 2524,
    "superficie": 51,
    "communes": 80,
    "habitants": ""
  },
  {
    "codeDepartement": 36,
    "insee": 363,
    "name": "Arrondissement de La Châtre",
    "chieftown": "La Châtre",
    "population": 28433,
    "densite": 1323,
    "superficie": 25,
    "communes": 58,
    "habitants": ""
  },
  {
    "codeDepartement": 36,
    "insee": 364,
    "name": "Arrondissement d'Issoudun",
    "chieftown": "Issoudun",
    "population": 34252,
    "densite": 1182,
    "superficie": 30,
    "communes": 49,
    "habitants": ""
  },
  {
    "codeDepartement": 37,
    "insee": 371,
    "name": "Arrondissement de Chinon",
    "chieftown": "Chinon",
    "population": 103824,
    "densite": 1694,
    "superficie": 51,
    "communes": 87,
    "habitants": ""
  },
  {
    "codeDepartement": 37,
    "insee": 373,
    "name": "Arrondissement de Loches",
    "chieftown": "Loches",
    "population": 118282,
    "densite": 1803,
    "superficie": 28,
    "communes": 67,
    "habitants": ""
  },
  {
    "codeDepartement": 37,
    "insee": 372,
    "name": "Arrondissement de Tours",
    "chieftown": "Tours",
    "population": 384117,
    "densite": 2629,
    "superficie": 176,
    "communes": 123,
    "habitants": "Tourangeaux"
  },
  {
    "codeDepartement": 38,
    "insee": 381,
    "name": "Arrondissement de Grenoble",
    "chieftown": "Grenoble",
    "population": 738149,
    "densite": 4715,
    "superficie": 160,
    "communes": 294,
    "habitants": "Grenoblois"
  },
  {
    "codeDepartement": 38,
    "insee": 382,
    "name": "Arrondissement de La Tour-du-Pin",
    "chieftown": "La Tour-du-Pin",
    "population": 302380,
    "densite": 1479,
    "superficie": 180,
    "communes": 134,
    "habitants": "Turripinois"
  },
  {
    "codeDepartement": 38,
    "insee": 383,
    "name": "Arrondissement de Vienne",
    "chieftown": "Vienne",
    "population": 212383,
    "densite": 1237,
    "superficie": 173,
    "communes": 98,
    "habitants": ""
  },
  {
    "codeDepartement": 39,
    "insee": 391,
    "name": "Arrondissement de Dole",
    "chieftown": "Dole",
    "population": 106246,
    "densite": 1180,
    "superficie": 71,
    "communes": 125,
    "habitants": ""
  },
  {
    "codeDepartement": 39,
    "insee": 392,
    "name": "Arrondissement de Lons-le-Saunier",
    "chieftown": "Lons-le-Saunier",
    "population": 104522,
    "densite": 2817,
    "superficie": 45,
    "communes": 332,
    "habitants": ""
  },
  {
    "codeDepartement": 39,
    "insee": 393,
    "name": "Arrondissement de Saint-Claude",
    "chieftown": "Saint-Claude",
    "population": 49749,
    "densite": 1003,
    "superficie": 51,
    "communes": 66,
    "habitants": ""
  },
  {
    "codeDepartement": 40,
    "insee": 401,
    "name": "Arrondissement de Dax",
    "chieftown": "Dax",
    "population": 224716,
    "densite": 3194,
    "superficie": 68,
    "communes": 153,
    "habitants": ""
  },
  {
    "codeDepartement": 40,
    "insee": 402,
    "name": "Arrondissement de Mont-de-Marsan",
    "chieftown": "Mont-de-Marsan",
    "population": 180294,
    "densite": 6048,
    "superficie": 30,
    "communes": 178,
    "habitants": ""
  },
  {
    "codeDepartement": 41,
    "insee": 411,
    "name": "Arrondissement de Blois",
    "chieftown": "Blois",
    "population": 151323,
    "densite": 2239,
    "superficie": 77,
    "communes": 113,
    "habitants": ""
  },
  {
    "codeDepartement": 41,
    "insee": 413,
    "name": "Arrondissement de Romorantin-Lanthenay",
    "chieftown": "Romorantin-Lanthenay",
    "population": 111627,
    "densite": 2385,
    "superficie": 38,
    "communes": 63,
    "habitants": ""
  },
  {
    "codeDepartement": 41,
    "insee": 412,
    "name": "Arrondissement de Vendôme",
    "chieftown": "Vendôme",
    "population": 69819,
    "densite": 1719,
    "superficie": 41,
    "communes": 107,
    "habitants": ""
  },
  {
    "codeDepartement": 42,
    "insee": 421,
    "name": "Arrondissement de Montbrison",
    "chieftown": "Montbrison",
    "population": 181551,
    "densite": 1959,
    "superficie": 96,
    "communes": 137,
    "habitants": ""
  },
  {
    "codeDepartement": 42,
    "insee": 422,
    "name": "Arrondissement de Roanne",
    "chieftown": "Roanne",
    "population": 157160,
    "densite": 1780,
    "superficie": 88,
    "communes": 115,
    "habitants": ""
  },
  {
    "codeDepartement": 42,
    "insee": 423,
    "name": "Arrondissement de Saint-Étienne",
    "chieftown": "Saint-Étienne",
    "population": 423286,
    "densite": 1041,
    "superficie": 396,
    "communes": 74,
    "habitants": "Stéphanois"
  },
  {
    "codeDepartement": 43,
    "insee": 431,
    "name": "Arrondissement de Brioude",
    "chieftown": "Brioude",
    "population": 45768,
    "densite": 1887,
    "superficie": 24,
    "communes": 113,
    "habitants": ""
  },
  {
    "codeDepartement": 43,
    "insee": 432,
    "name": "Arrondissement du Puy-en-Velay",
    "chieftown": "Le Puy-en-Velay",
    "population": 96498,
    "densite": 1931,
    "superficie": 50,
    "communes": 101,
    "habitants": ""
  },
  {
    "codeDepartement": 43,
    "insee": 433,
    "name": "Arrondissement d'Yssingeaux",
    "chieftown": "Yssingeaux",
    "population": 85073,
    "densite": 1160,
    "superficie": 73,
    "communes": 44,
    "habitants": ""
  },
  {
    "codeDepartement": 44,
    "insee": 445,
    "name": "Arrondissement de Châteaubriant-Ancenis",
    "chieftown": "Châteaubriant",
    "population": 222436,
    "densite": 2939,
    "superficie": 60,
    "communes": 77,
    "habitants": ""
  },
  {
    "codeDepartement": 44,
    "insee": 442,
    "name": "Arrondissement de Nantes",
    "chieftown": "Nantes",
    "population": 830509,
    "densite": 2118,
    "superficie": 387,
    "communes": 80,
    "habitants": "Nantais"
  },
  {
    "codeDepartement": 44,
    "insee": 443,
    "name": "Arrondissement de Saint-Nazaire",
    "chieftown": "Saint-Nazaire",
    "population": 327907,
    "densite": 1758,
    "superficie": 181,
    "communes": 55,
    "habitants": "Nazairien"
  },
  {
    "codeDepartement": 45,
    "insee": 451,
    "name": "Arrondissement de Montargis",
    "chieftown": "Montargis",
    "population": 170285,
    "densite": 2631,
    "superficie": 65,
    "communes": 125,
    "habitants": ""
  },
  {
    "codeDepartement": 45,
    "insee": 452,
    "name": "Arrondissement d'Orléans",
    "chieftown": "Orléans",
    "population": 440562,
    "densite": 2946,
    "superficie": 147,
    "communes": 122,
    "habitants": "Orléanais"
  },
  {
    "codeDepartement": 45,
    "insee": 453,
    "name": "Arrondissement de Pithiviers",
    "chieftown": "Pithiviers",
    "population": 63483,
    "densite": 1198,
    "superficie": 53,
    "communes": 80,
    "habitants": ""
  },
  {
    "codeDepartement": 46,
    "insee": 461,
    "name": "Arrondissement de Cahors",
    "chieftown": "Cahors",
    "population": 71943,
    "densite": 2179,
    "superficie": 35,
    "communes": 129,
    "habitants": ""
  },
  {
    "codeDepartement": 46,
    "insee": 462,
    "name": "Arrondissement de Figeac",
    "chieftown": "Figeac",
    "population": 54566,
    "densite": 1550,
    "superficie": 35,
    "communes": 116,
    "habitants": ""
  },
  {
    "codeDepartement": 46,
    "insee": 463,
    "name": "Arrondissement de Gourdon",
    "chieftown": "Gourdon",
    "population": 46838,
    "densite": 1487,
    "superficie": 29,
    "communes": 81,
    "habitants": ""
  },
  {
    "codeDepartement": 47,
    "insee": 471,
    "name": "Arrondissement d'Agen",
    "chieftown": "Agen",
    "population": 120499,
    "densite": 1013,
    "superficie": 119,
    "communes": 71,
    "habitants": ""
  },
  {
    "codeDepartement": 47,
    "insee": 472,
    "name": "Arrondissement de Marmande",
    "chieftown": "Marmande",
    "population": 83647,
    "densite": 1388,
    "superficie": 60,
    "communes": 98,
    "habitants": ""
  },
  {
    "codeDepartement": 47,
    "insee": 474,
    "name": "Arrondissement de Nérac",
    "chieftown": "Nérac",
    "population": 39020,
    "densite": 1400,
    "superficie": 28,
    "communes": 58,
    "habitants": ""
  },
  {
    "codeDepartement": 47,
    "insee": 473,
    "name": "Arrondissement de Villeneuve-sur-Lot",
    "chieftown": "Villeneuve-sur-Lot",
    "population": 89667,
    "densite": 1560,
    "superficie": 58,
    "communes": 92,
    "habitants": ""
  },
  {
    "codeDepartement": 48,
    "insee": 481,
    "name": "Arrondissement de Florac",
    "chieftown": "Florac Trois Rivières",
    "population": 13242,
    "densite": 1687,
    "superficie": 8,
    "communes": 44,
    "habitants": ""
  },
  {
    "codeDepartement": 48,
    "insee": 482,
    "name": "Arrondissement de Mende",
    "chieftown": "Mende",
    "population": 63180,
    "densite": 3479,
    "superficie": 18,
    "communes": 132,
    "habitants": ""
  },
  {
    "codeDepartement": 49,
    "insee": 491,
    "name": "Arrondissement d'Angers",
    "chieftown": "Angers",
    "population": 380215,
    "densite": 2127,
    "superficie": 187,
    "communes": 89,
    "habitants": "Angevins"
  },
  {
    "codeDepartement": 49,
    "insee": 492,
    "name": "Arrondissement de Cholet",
    "chieftown": "Cholet",
    "population": 224581,
    "densite": 1646,
    "superficie": 124,
    "communes": 20,
    "habitants": ""
  },
  {
    "codeDepartement": 49,
    "insee": 493,
    "name": "Arrondissement de Saumur",
    "chieftown": "Saumur",
    "population": 135333,
    "densite": 2229,
    "superficie": 62,
    "communes": 84,
    "habitants": ""
  },
  {
    "codeDepartement": 49,
    "insee": 494,
    "name": "Arrondissement de Segré",
    "chieftown": "Segré-en-Anjou Bleu",
    "population": 70805,
    "densite": 1164,
    "superficie": 54,
    "communes": 54,
    "habitants": ""
  },
  {
    "codeDepartement": 50,
    "insee": 501,
    "name": "Arrondissement d'Avranches",
    "chieftown": "Avranches",
    "population": 134724,
    "densite": 1762,
    "superficie": 70,
    "communes": 160,
    "habitants": ""
  },
  {
    "codeDepartement": 50,
    "insee": 502,
    "name": "Arrondissement de Cherbourg",
    "chieftown": "Cherbourg-en-Cotentin",
    "population": 189928,
    "densite": 1639,
    "superficie": 116,
    "communes": 189,
    "habitants": ""
  },
  {
    "codeDepartement": 50,
    "insee": 503,
    "name": "Arrondissement de Coutances",
    "chieftown": "Coutances",
    "population": 70845,
    "densite": 1301,
    "superficie": 65,
    "communes": 130,
    "habitants": ""
  },
  {
    "codeDepartement": 50,
    "insee": 504,
    "name": "Arrondissement de Saint-Lô",
    "chieftown": "Saint-Lô",
    "population": 102865,
    "densite": 1235,
    "superficie": 82,
    "communes": 123,
    "habitants": ""
  },
  {
    "codeDepartement": 51,
    "insee": 511,
    "name": "Arrondissement de Châlons-en-Champagne",
    "chieftown": "Châlons-en-Champagne",
    "population": 109916,
    "densite": 1778,
    "superficie": 58,
    "communes": 100,
    "habitants": ""
  },
  {
    "codeDepartement": 51,
    "insee": 512,
    "name": "Arrondissement de Épernay",
    "chieftown": "Épernay",
    "population": 120269,
    "densite": 2156,
    "superficie": 47,
    "communes": 164,
    "habitants": ""
  },
  {
    "codeDepartement": 51,
    "insee": 513,
    "name": "Arrondissement de Reims",
    "chieftown": "Reims",
    "population": 294674,
    "densite": 1702,
    "superficie": 194,
    "communes": 175,
    "habitants": "Rémois"
  },
  {
    "codeDepartement": 51,
    "insee": 514,
    "name": "Arrondissement de Vitry-le-François",
    "chieftown": "Vitry-le-François",
    "population": 46024,
    "densite": 1504,
    "superficie": 32,
    "communes": 113,
    "habitants": ""
  },
  {
    "codeDepartement": 52,
    "insee": 521,
    "name": "Arrondissement de Chaumont",
    "chieftown": "Chaumont",
    "population": 64148,
    "densite": 2476,
    "superficie": 26,
    "communes": 160,
    "habitants": "Chaumontais"
  },
  {
    "codeDepartement": 52,
    "insee": 522,
    "name": "Arrondissement de Langres",
    "chieftown": "Langres",
    "population": 43943,
    "densite": 2163,
    "superficie": 21,
    "communes": 158,
    "habitants": ""
  },
  {
    "codeDepartement": 52,
    "insee": 523,
    "name": "Arrondissement de Saint-Dizier",
    "chieftown": "Saint-Dizier",
    "population": 69993,
    "densite": 1571,
    "superficie": 46,
    "communes": 114,
    "habitants": ""
  },
  {
    "codeDepartement": 53,
    "insee": 531,
    "name": "Arrondissement de Château-Gontier",
    "chieftown": "Château-Gontier-sur-Mayenne",
    "population": 73769,
    "densite": 1270,
    "superficie": 50,
    "communes": 71,
    "habitants": ""
  },
  {
    "codeDepartement": 53,
    "insee": 532,
    "name": "Arrondissement de Laval",
    "chieftown": "Laval",
    "population": 112937,
    "densite": 1812,
    "superficie": 85,
    "communes": 88,
    "habitants": ""
  },
  {
    "codeDepartement": 53,
    "insee": 533,
    "name": "Arrondissement de Mayenne",
    "chieftown": "Mayenne",
    "population": 120982,
    "densite": 2094,
    "superficie": 43,
    "communes": 102,
    "habitants": ""
  },
  {
    "codeDepartement": 54,
    "insee": 541,
    "name": "Arrondissement de Briey",
    "chieftown": "Val de Briey",
    "population": 166309,
    "densite": 1143,
    "superficie": 144,
    "communes": 130,
    "habitants": ""
  },
  {
    "codeDepartement": 54,
    "insee": 542,
    "name": "Arrondissement de Lunéville",
    "chieftown": "Lunéville",
    "population": 78662,
    "densite": 1451,
    "superficie": 55,
    "communes": 164,
    "habitants": ""
  },
  {
    "codeDepartement": 54,
    "insee": 543,
    "name": "Arrondissement de Nancy",
    "chieftown": "Nancy",
    "population": 419699,
    "densite": 1509,
    "superficie": 277,
    "communes": 188,
    "habitants": "Nancéiens"
  },
  {
    "codeDepartement": 54,
    "insee": 544,
    "name": "Arrondissement de Toul",
    "chieftown": "Toul",
    "population": 69151,
    "densite": 1143,
    "superficie": 61,
    "communes": 112,
    "habitants": ""
  },
  {
    "codeDepartement": 55,
    "insee": 551,
    "name": "Arrondissement de Bar-le-Duc",
    "chieftown": "Bar-le-Duc",
    "population": 59980,
    "densite": 1451,
    "superficie": 42,
    "communes": 109,
    "habitants": ""
  },
  {
    "codeDepartement": 55,
    "insee": 552,
    "name": "Arrondissement de Commercy",
    "chieftown": "Commercy",
    "population": 43511,
    "densite": 1932,
    "superficie": 23,
    "communes": 136,
    "habitants": ""
  },
  {
    "codeDepartement": 55,
    "insee": 553,
    "name": "Arrondissement de Verdun",
    "chieftown": "Verdun",
    "population": 85564,
    "densite": 2829,
    "superficie": 31,
    "communes": 253,
    "habitants": ""
  },
  {
    "codeDepartement": 56,
    "insee": 561,
    "name": "Arrondissement de Lorient",
    "chieftown": "Lorient",
    "population": 312063,
    "densite": 1489,
    "superficie": 210,
    "communes": 60,
    "habitants": "Lorientais"
  },
  {
    "codeDepartement": 56,
    "insee": 562,
    "name": "Arrondissement de Pontivy",
    "chieftown": "Pontivy",
    "population": 155521,
    "densite": 2399,
    "superficie": 52,
    "communes": 78,
    "habitants": ""
  },
  {
    "codeDepartement": 56,
    "insee": 563,
    "name": "Arrondissement de Vannes",
    "chieftown": "Vannes",
    "population": 279964,
    "densite": 2935,
    "superficie": 102,
    "communes": 123,
    "habitants": "Vannetais"
  },
  {
    "codeDepartement": 57,
    "insee": 573,
    "name": "Arrondissement de Forbach-Boulay-Moselle",
    "chieftown": "Forbach",
    "population": 243054,
    "densite": 1283,
    "superficie": 292,
    "communes": 169,
    "habitants": ""
  },
  {
    "codeDepartement": 57,
    "insee": 579,
    "name": "Arrondissement de Metz",
    "chieftown": "Metz",
    "population": 344203,
    "densite": 1089,
    "superficie": 214,
    "communes": 143,
    "habitants": "Messins"
  },
  {
    "codeDepartement": 57,
    "insee": 575,
    "name": "Arrondissement de Sarrebourg-Château-Salins",
    "chieftown": "Sarrebourg",
    "population": 92282,
    "densite": 1967,
    "superficie": 48,
    "communes": 230,
    "habitants": ""
  },
  {
    "codeDepartement": 57,
    "insee": 576,
    "name": "Arrondissement de Sarreguemines",
    "chieftown": "Sarreguemines",
    "population": 99226,
    "densite": 936,
    "superficie": 107,
    "communes": 83,
    "habitants": ""
  },
  {
    "codeDepartement": 57,
    "insee": 577,
    "name": "Arrondissement de Thionville",
    "chieftown": "Thionville",
    "population": 266506,
    "densite": 941,
    "superficie": 281,
    "communes": 105,
    "habitants": ""
  },
  {
    "codeDepartement": 58,
    "insee": 581,
    "name": "Arrondissement de Château-Chinon",
    "chieftown": "Château-Chinon",
    "population": 28291,
    "densite": 1929,
    "superficie": 14,
    "communes": 72,
    "habitants": ""
  },
  {
    "codeDepartement": 58,
    "insee": 582,
    "name": "Arrondissement de Clamecy",
    "chieftown": "Clamecy",
    "population": 21364,
    "densite": 1464,
    "superficie": 17,
    "communes": 93,
    "habitants": ""
  },
  {
    "codeDepartement": 58,
    "insee": 584,
    "name": "Arrondissement de Cosne-Cours-sur-Loire",
    "chieftown": "Cosne-Cours-sur-Loire",
    "population": 43893,
    "densite": 1403,
    "superficie": 32,
    "communes": 64,
    "habitants": ""
  },
  {
    "codeDepartement": 58,
    "insee": 583,
    "name": "Arrondissement de Nevers",
    "chieftown": "Nevers",
    "population": 115613,
    "densite": 2020,
    "superficie": 59,
    "communes": 83,
    "habitants": ""
  },
  {
    "codeDepartement": 59,
    "insee": 591,
    "name": "Arrondissement d'Avesnes-sur-Helpe",
    "chieftown": "Avesnes-sur-Helpe",
    "population": 230372,
    "densite": 1408,
    "superficie": 165,
    "communes": 151,
    "habitants": ""
  },
  {
    "codeDepartement": 59,
    "insee": 592,
    "name": "Arrondissement de Cambrai",
    "chieftown": "Cambrai",
    "population": 162045,
    "densite": 902,
    "superficie": 180,
    "communes": 116,
    "habitants": ""
  },
  {
    "codeDepartement": 59,
    "insee": 593,
    "name": "Arrondissement de Douai",
    "chieftown": "Douai",
    "population": 245280,
    "densite": 477,
    "superficie": 519,
    "communes": 64,
    "habitants": ""
  },
  {
    "codeDepartement": 59,
    "insee": 594,
    "name": "Arrondissement de Dunkerque",
    "chieftown": "Dunkerque",
    "population": 377294,
    "densite": 1443,
    "superficie": 261,
    "communes": 115,
    "habitants": "Dunkerquois"
  },
  {
    "codeDepartement": 59,
    "insee": 595,
    "name": "Arrondissement de Lille",
    "chieftown": "Lille",
    "population": 1237472,
    "densite": 879,
    "superficie": 1395,
    "communes": 124,
    "habitants": "Lillois"
  },
  {
    "codeDepartement": 59,
    "insee": 596,
    "name": "Arrondissement de Valenciennes",
    "chieftown": "Valenciennes",
    "population": 351260,
    "densite": 635,
    "superficie": 551,
    "communes": 82,
    "habitants": "Valenciennois"
  },
  {
    "codeDepartement": 60,
    "insee": 601,
    "name": "Arrondissement de Beauvais",
    "chieftown": "Beauvais",
    "population": 229183,
    "densite": 2100,
    "superficie": 108,
    "communes": 258,
    "habitants": "Beauvaisiens"
  },
  {
    "codeDepartement": 60,
    "insee": 602,
    "name": "Arrondissement de Clermont",
    "chieftown": "Clermont",
    "population": 130333,
    "densite": 1142,
    "superficie": 114,
    "communes": 146,
    "habitants": ""
  },
  {
    "codeDepartement": 60,
    "insee": 603,
    "name": "Arrondissement de Compiègne",
    "chieftown": "Compiègne",
    "population": 182266,
    "densite": 1275,
    "superficie": 142,
    "communes": 156,
    "habitants": "Compiégnois"
  },
  {
    "codeDepartement": 60,
    "insee": 604,
    "name": "Arrondissement de Senlis",
    "chieftown": "Senlis",
    "population": 281760,
    "densite": 1344,
    "superficie": 207,
    "communes": 133,
    "habitants": "Senlisiens"
  },
  {
    "codeDepartement": 61,
    "insee": 611,
    "name": "Arrondissement d'Alençon",
    "chieftown": "Alençon",
    "population": 86907,
    "densite": 1710,
    "superficie": 59,
    "communes": 133,
    "habitants": ""
  },
  {
    "codeDepartement": 61,
    "insee": 612,
    "name": "Arrondissement d'Argentan",
    "chieftown": "Argentan",
    "population": 110239,
    "densite": 2432,
    "superficie": 48,
    "communes": 226,
    "habitants": ""
  },
  {
    "codeDepartement": 61,
    "insee": 613,
    "name": "Arrondissement de Mortagne-au-Perche",
    "chieftown": "Mortagne-au-Perche",
    "population": 88162,
    "densite": 1961,
    "superficie": 37,
    "communes": 146,
    "habitants": ""
  },
  {
    "codeDepartement": 62,
    "insee": 621,
    "name": "Arrondissement d'Arras",
    "chieftown": "Arras",
    "population": 248929,
    "densite": 2519,
    "superficie": 113,
    "communes": 397,
    "habitants": ""
  },
  {
    "codeDepartement": 62,
    "insee": 622,
    "name": "Arrondissement de Béthune",
    "chieftown": "Béthune",
    "population": 293991,
    "densite": 674,
    "superficie": 424,
    "communes": 99,
    "habitants": "Béthunois"
  },
  {
    "codeDepartement": 62,
    "insee": 623,
    "name": "Arrondissement de Boulogne-sur-Mer",
    "chieftown": "Boulogne-sur-Mer",
    "population": 159748,
    "densite": 640,
    "superficie": 253,
    "communes": 75,
    "habitants": ""
  },
  {
    "codeDepartement": 62,
    "insee": 626,
    "name": "Arrondissement de Calais",
    "chieftown": "Calais",
    "population": 158492,
    "densite": 310,
    "superficie": 382,
    "communes": 28,
    "habitants": ""
  },
  {
    "codeDepartement": 62,
    "insee": 627,
    "name": "Arrondissement de Lens",
    "chieftown": "Lens",
    "population": 367839,
    "densite": 278,
    "superficie": 1162,
    "communes": 39,
    "habitants": "Lensois"
  },
  {
    "codeDepartement": 62,
    "insee": 624,
    "name": "Arrondissement de Montreuil",
    "chieftown": "Montreuil",
    "population": 112118,
    "densite": 1160,
    "superficie": 85,
    "communes": 140,
    "habitants": ""
  },
  {
    "codeDepartement": 62,
    "insee": 625,
    "name": "Arrondissement de Saint-Omer",
    "chieftown": "Saint-Omer",
    "population": 129608,
    "densite": 1090,
    "superficie": 151,
    "communes": 116,
    "habitants": ""
  },
  {
    "codeDepartement": 63,
    "insee": 631,
    "name": "Arrondissement d'Ambert",
    "chieftown": "Ambert",
    "population": 27606,
    "densite": 1188,
    "superficie": 23,
    "communes": 55,
    "habitants": ""
  },
  {
    "codeDepartement": 63,
    "insee": 632,
    "name": "Arrondissement de Clermont-Ferrand",
    "chieftown": "Clermont-Ferrand",
    "population": 354048,
    "densite": 1796,
    "superficie": 208,
    "communes": 119,
    "habitants": "Clermontois"
  },
  {
    "codeDepartement": 63,
    "insee": 633,
    "name": "Arrondissement d'Issoire",
    "chieftown": "Issoire",
    "population": 77561,
    "densite": 1820,
    "superficie": 34,
    "communes": 116,
    "habitants": ""
  },
  {
    "codeDepartement": 63,
    "insee": 634,
    "name": "Arrondissement de Riom",
    "chieftown": "Riom",
    "population": 135164,
    "densite": 2300,
    "superficie": 52,
    "communes": 137,
    "habitants": ""
  },
  {
    "codeDepartement": 63,
    "insee": 635,
    "name": "Arrondissement de Thiers",
    "chieftown": "Thiers",
    "population": 56321,
    "densite": 866,
    "superficie": 66,
    "communes": 43,
    "habitants": ""
  },
  {
    "codeDepartement": 64,
    "insee": 641,
    "name": "Arrondissement de Bayonne",
    "chieftown": "Bayonne",
    "population": 293590,
    "densite": 2270,
    "superficie": 126,
    "communes": 123,
    "habitants": "Bayonnais"
  },
  {
    "codeDepartement": 64,
    "insee": 642,
    "name": "Arrondissement d'Oloron-Sainte-Marie",
    "chieftown": "Oloron-Sainte-Marie",
    "population": 72504,
    "densite": 2885,
    "superficie": 26,
    "communes": 155,
    "habitants": ""
  },
  {
    "codeDepartement": 64,
    "insee": 643,
    "name": "Arrondissement de Pau",
    "chieftown": "Pau",
    "population": 307892,
    "densite": 2490,
    "superficie": 122,
    "communes": 269,
    "habitants": "Palois"
  },
  {
    "codeDepartement": 65,
    "insee": 651,
    "name": "Arrondissement d'Argelès-Gazost",
    "chieftown": "Argelès-Gazost",
    "population": 38002,
    "densite": 1300,
    "superficie": 30,
    "communes": 89,
    "habitants": ""
  },
  {
    "codeDepartement": 65,
    "insee": 652,
    "name": "Arrondissement de Bagnères-de-Bigorre",
    "chieftown": "Bagnères-de-Bigorre",
    "population": 48866,
    "densite": 1676,
    "superficie": 28,
    "communes": 160,
    "habitants": ""
  },
  {
    "codeDepartement": 65,
    "insee": 653,
    "name": "Arrondissement de Tarbes",
    "chieftown": "Tarbes",
    "population": 140961,
    "densite": 1488,
    "superficie": 96,
    "communes": 225,
    "habitants": ""
  },
  {
    "codeDepartement": 66,
    "insee": 661,
    "name": "Arrondissement de Céret",
    "chieftown": "Céret",
    "population": 129464,
    "densite": 954,
    "superficie": 76,
    "communes": 40,
    "habitants": "Cérétans"
  },
  {
    "codeDepartement": 66,
    "insee": 662,
    "name": "Arrondissement de Perpignan",
    "chieftown": "Perpignan",
    "population": 285077,
    "densite": 1317,
    "superficie": 264,
    "communes": 86,
    "habitants": "Perpignanais"
  },
  {
    "codeDepartement": 66,
    "insee": 663,
    "name": "Arrondissement de Prades",
    "chieftown": "Prades",
    "population": 59828,
    "densite": 1845,
    "superficie": 23,
    "communes": 100,
    "habitants": "Pradéens"
  },
  {
    "codeDepartement": 67,
    "insee": 672,
    "name": "Arrondissement de Haguenau-Wissembourg",
    "chieftown": "Haguenau",
    "population": 240807,
    "densite": 1422,
    "superficie": 169,
    "communes": 144,
    "habitants": "Haguenoviens"
  },
  {
    "codeDepartement": 67,
    "insee": 673,
    "name": "Arrondissement de Molsheim",
    "chieftown": "Molsheim",
    "population": 103633,
    "densite": 771,
    "superficie": 133,
    "communes": 77,
    "habitants": "Molsheimiens"
  },
  {
    "codeDepartement": 67,
    "insee": 674,
    "name": "Arrondissement de Saverne",
    "chieftown": "Saverne",
    "population": 129095,
    "densite": 1244,
    "superficie": 104,
    "communes": 172,
    "habitants": "Savernois"
  },
  {
    "codeDepartement": 67,
    "insee": 675,
    "name": "Arrondissement de Sélestat-Erstein",
    "chieftown": "Sélestat",
    "population": 156463,
    "densite": 981,
    "superficie": 158,
    "communes": 101,
    "habitants": "Sélestadiens"
  },
  {
    "codeDepartement": 68,
    "insee": 681,
    "name": "Arrondissement d'Altkirch",
    "chieftown": "Altkirch",
    "population": 69793,
    "densite": 655,
    "superficie": 105,
    "communes": 112,
    "habitants": "Altkirchois"
  },
  {
    "codeDepartement": 68,
    "insee": 682,
    "name": "Arrondissement de Colmar-Ribeauvillé",
    "chieftown": "Colmar",
    "population": 211668,
    "densite": 1128,
    "superficie": 177,
    "communes": 94,
    "habitants": "Colmariens"
  },
  {
    "codeDepartement": 68,
    "insee": 684,
    "name": "Arrondissement de Mulhouse",
    "chieftown": "Mulhouse",
    "population": 351012,
    "densite": 634,
    "superficie": 495,
    "communes": 80,
    "habitants": "Mulhousiens"
  },
  {
    "codeDepartement": 68,
    "insee": 686,
    "name": "Arrondissement de Thann-Guebwiller",
    "chieftown": "Thann",
    "population": 130270,
    "densite": 1028,
    "superficie": 137,
    "communes": 91,
    "habitants": "Thannois"
  },
  {
    "codeDepartement": 69,
    "insee": 691,
    "name": "Arrondissement de Lyon",
    "chieftown": "Lyon",
    "population": 1585411,
    "densite": 534,
    "superficie": 2505,
    "communes": 59,
    "habitants": "Lyonnais"
  },
  {
    "codeDepartement": 69,
    "insee": 692,
    "name": "Arrondissement de Villefranche-sur-Saône",
    "chieftown": "Villefranche-sur-Saône",
    "population": 250492,
    "densite": 2715,
    "superficie": 163,
    "communes": 228,
    "habitants": "Caladois"
  },
  {
    "codeDepartement": 70,
    "insee": 701,
    "name": "Arrondissement de Lure",
    "chieftown": "Lure",
    "population": 109260,
    "densite": 1848,
    "superficie": 59,
    "communes": 194,
    "habitants": "Lurons"
  },
  {
    "codeDepartement": 70,
    "insee": 702,
    "name": "Arrondissement de Vesoul",
    "chieftown": "Vesoul",
    "population": 127982,
    "densite": 3512,
    "superficie": 37,
    "communes": 351,
    "habitants": "Vésuliens"
  },
  {
    "codeDepartement": 71,
    "insee": 711,
    "name": "Arrondissement d'Autun",
    "chieftown": "Autun",
    "population": 131392,
    "densite": 1900,
    "superficie": 46,
    "communes": 83,
    "habitants": "Autunois"
  },
  {
    "codeDepartement": 71,
    "insee": 712,
    "name": "Arrondissement de Chalon-sur-Saône",
    "chieftown": "Chalon-sur-Saône",
    "population": 156331,
    "densite": 1726,
    "superficie": 116,
    "communes": 151,
    "habitants": "Chalonnais"
  },
  {
    "codeDepartement": 71,
    "insee": 713,
    "name": "Arrondissement de Charolles",
    "chieftown": "Charolles",
    "population": 87416,
    "densite": 2500,
    "superficie": 40,
    "communes": 136,
    "habitants": "Charollais"
  },
  {
    "codeDepartement": 71,
    "insee": 714,
    "name": "Arrondissement de Louhans",
    "chieftown": "Louhans",
    "population": 67030,
    "densite": 1248,
    "superficie": 45,
    "communes": 79,
    "habitants": "Louhannais"
  },
  {
    "codeDepartement": 71,
    "insee": 715,
    "name": "Arrondissement de Mâcon",
    "chieftown": "Mâcon",
    "population": 112854,
    "densite": 1200,
    "superficie": 95,
    "communes": 124,
    "habitants": "Mâconnais"
  },
  {
    "codeDepartement": 72,
    "insee": 721,
    "name": "Arrondissement de La Flèche",
    "chieftown": "La Flèche",
    "population": 152008,
    "densite": 2521,
    "superficie": 61,
    "communes": 125,
    "habitants": "Fléchois"
  },
  {
    "codeDepartement": 72,
    "insee": 722,
    "name": "Arrondissement de Mamers",
    "chieftown": "Mamers",
    "population": 150238,
    "densite": 1615,
    "superficie": 53,
    "communes": 197,
    "habitants": "Mamertin"
  },
  {
    "codeDepartement": 72,
    "insee": 723,
    "name": "Arrondissement du Mans",
    "chieftown": "Le Mans",
    "population": 265315,
    "densite": 837,
    "superficie": 317,
    "communes": 58,
    "habitants": ""
  },
  {
    "codeDepartement": 73,
    "insee": 731,
    "name": "Arrondissement d'Albertville",
    "chieftown": "Albertville",
    "population": 111751,
    "densite": 2466,
    "superficie": 45,
    "communes": 82,
    "habitants": ""
  },
  {
    "codeDepartement": 73,
    "insee": 732,
    "name": "Arrondissement de Chambéry",
    "chieftown": "Chambéry",
    "population": 274839,
    "densite": 1586,
    "superficie": 169,
    "communes": 161,
    "habitants": "Chambérien"
  },
  {
    "codeDepartement": 73,
    "insee": 733,
    "name": "Arrondissement de Saint-Jean-de-Maurienne",
    "chieftown": "Saint-Jean-de-Maurienne",
    "population": 43091,
    "densite": 1976,
    "superficie": 22,
    "communes": 62,
    "habitants": ""
  },
  {
    "codeDepartement": 74,
    "insee": 741,
    "name": "Arrondissement d'Annecy",
    "chieftown": "Annecy",
    "population": 282319,
    "densite": 1262,
    "superficie": 215,
    "communes": 93,
    "habitants": "Annécien"
  },
  {
    "codeDepartement": 74,
    "insee": 742,
    "name": "Arrondissement de Bonneville",
    "chieftown": "Bonneville",
    "population": 186945,
    "densite": 1558,
    "superficie": 117,
    "communes": 61,
    "habitants": ""
  },
  {
    "codeDepartement": 74,
    "insee": 743,
    "name": "Arrondissement de Saint-Julien-en-Genevois",
    "chieftown": "Saint-Julien-en-Genevois",
    "population": 186343,
    "densite": 660,
    "superficie": 266,
    "communes": 72,
    "habitants": ""
  },
  {
    "codeDepartement": 74,
    "insee": 744,
    "name": "Arrondissement de Thonon-les-Bains",
    "chieftown": "Thonon-les-Bains",
    "population": 145809,
    "densite": 908,
    "superficie": 154,
    "communes": 68,
    "habitants": ""
  },
  {
    "codeDepartement": 75,
    "insee": 751,
    "name": "Arrondissement de Paris",
    "chieftown": "Paris",
    "population": 2190327,
    "densite": 105,
    "superficie": 21154,
    "communes": 1,
    "habitants": "Parisien"
  },
  {
    "codeDepartement": 76,
    "insee": 761,
    "name": "Arrondissement de Dieppe",
    "chieftown": "Dieppe",
    "population": 237203,
    "densite": 3055,
    "superficie": 77,
    "communes": 350,
    "habitants": ""
  },
  {
    "codeDepartement": 76,
    "insee": 762,
    "name": "Arrondissement du Havre",
    "chieftown": "Le Havre",
    "population": 387520,
    "densite": 1330,
    "superficie": 297,
    "communes": 176,
    "habitants": "Havrais"
  },
  {
    "codeDepartement": 76,
    "insee": 763,
    "name": "Arrondissement de Rouen",
    "chieftown": "Rouen",
    "population": 631032,
    "densite": 1893,
    "superficie": 330,
    "communes": 219,
    "habitants": "Rouennais"
  },
  {
    "codeDepartement": 77,
    "insee": 774,
    "name": "Arrondissement de Fontainebleau",
    "chieftown": "Fontainebleau",
    "population": 156193,
    "densite": 1227,
    "superficie": 120,
    "communes": 86,
    "habitants": ""
  },
  {
    "codeDepartement": 77,
    "insee": 771,
    "name": "Arrondissement de Meaux",
    "chieftown": "Meaux",
    "population": 343169,
    "densite": 1200,
    "superficie": 236,
    "communes": 128,
    "habitants": "Meldois"
  },
  {
    "codeDepartement": 77,
    "insee": 772,
    "name": "Arrondissement de Melun",
    "chieftown": "Melun",
    "population": 278808,
    "densite": 1029,
    "superficie": 344,
    "communes": 91,
    "habitants": "Melunais"
  },
  {
    "codeDepartement": 77,
    "insee": 773,
    "name": "Arrondissement de Provins",
    "chieftown": "Provins",
    "population": 190156,
    "densite": 2157,
    "superficie": 76,
    "communes": 165,
    "habitants": ""
  },
  {
    "codeDepartement": 77,
    "insee": 775,
    "name": "Arrondissement de Torcy",
    "chieftown": "Torcy",
    "population": 429339,
    "densite": 302,
    "superficie": 1385,
    "communes": 43,
    "habitants": "Torcéens"
  },
  {
    "codeDepartement": 78,
    "insee": 781,
    "name": "Arrondissement de Mantes-la-Jolie",
    "chieftown": "Mantes-la-Jolie",
    "population": 271436,
    "densite": 825,
    "superficie": 341,
    "communes": 117,
    "habitants": "Mantais"
  },
  {
    "codeDepartement": 78,
    "insee": 782,
    "name": "Arrondissement de Rambouillet",
    "chieftown": "Rambouillet",
    "population": 228196,
    "densite": 953,
    "superficie": 234,
    "communes": 81,
    "habitants": ""
  },
  {
    "codeDepartement": 78,
    "insee": 783,
    "name": "Arrondissement de Saint-Germain-en-Laye",
    "chieftown": "Saint-Germain-en-Laye",
    "population": 518220,
    "densite": 341,
    "superficie": 1629,
    "communes": 45,
    "habitants": "Saint-Germanois"
  },
  {
    "codeDepartement": 78,
    "insee": 784,
    "name": "Arrondissement de Versailles",
    "chieftown": "Versailles",
    "population": 413956,
    "densite": 165,
    "superficie": 2175,
    "communes": 19,
    "habitants": "Versaillais"
  },
  {
    "codeDepartement": 79,
    "insee": 791,
    "name": "Arrondissement de Bressuire",
    "chieftown": "Bressuire",
    "population": 109393,
    "densite": 1623,
    "superficie": 59,
    "communes": 62,
    "habitants": "Bressuirais"
  },
  {
    "codeDepartement": 79,
    "insee": 792,
    "name": "Arrondissement de Niort",
    "chieftown": "Niort",
    "population": 199177,
    "densite": 2792,
    "superficie": 76,
    "communes": 166,
    "habitants": ""
  },
  {
    "codeDepartement": 79,
    "insee": 793,
    "name": "Arrondissement de Parthenay",
    "chieftown": "Parthenay",
    "population": 66173,
    "densite": 1585,
    "superficie": 41,
    "communes": 77,
    "habitants": ""
  },
  {
    "codeDepartement": 80,
    "insee": 801,
    "name": "Arrondissement d'Abbeville",
    "chieftown": "Abbeville",
    "population": 125867,
    "densite": 1589,
    "superficie": 77,
    "communes": 169,
    "habitants": ""
  },
  {
    "codeDepartement": 80,
    "insee": 802,
    "name": "Arrondissement d'Amiens",
    "chieftown": "Amiens",
    "population": 304282,
    "densite": 2465,
    "superficie": 130,
    "communes": 313,
    "habitants": "Amiénois"
  },
  {
    "codeDepartement": 80,
    "insee": 803,
    "name": "Arrondissement de Montdidier",
    "chieftown": "Montdidier",
    "population": 47700,
    "densite": 916,
    "superficie": 62,
    "communes": 132,
    "habitants": ""
  },
  {
    "codeDepartement": 80,
    "insee": 804,
    "name": "Arrondissement de Péronne",
    "chieftown": "Péronne",
    "population": 94895,
    "densite": 1200,
    "superficie": 67,
    "communes": 169,
    "habitants": ""
  },
  {
    "codeDepartement": 81,
    "insee": 811,
    "name": "Arrondissement d'Albi",
    "chieftown": "Albi",
    "population": 191150,
    "densite": 2732,
    "superficie": 69,
    "communes": 170,
    "habitants": ""
  },
  {
    "codeDepartement": 81,
    "insee": 812,
    "name": "Arrondissement de Castres",
    "chieftown": "Castres",
    "population": 195298,
    "densite": 3026,
    "superficie": 64,
    "communes": 154,
    "habitants": ""
  },
  {
    "codeDepartement": 82,
    "insee": 821,
    "name": "Arrondissement de Castelsarrasin",
    "chieftown": "Castelsarrasin",
    "population": 77423,
    "densite": 1602,
    "superficie": 48,
    "communes": 103,
    "habitants": ""
  },
  {
    "codeDepartement": 82,
    "insee": 822,
    "name": "Arrondissement de Montauban",
    "chieftown": "Montauban",
    "population": 179474,
    "densite": 2117,
    "superficie": 82,
    "communes": 92,
    "habitants": ""
  },
  {
    "codeDepartement": 83,
    "insee": 833,
    "name": "Arrondissement de Brignoles",
    "chieftown": "Brignoles",
    "population": 181649,
    "densite": 2260,
    "superficie": 66,
    "communes": 61,
    "habitants": ""
  },
  {
    "codeDepartement": 83,
    "insee": 831,
    "name": "Arrondissement de Draguignan",
    "chieftown": "Draguignan",
    "population": 306320,
    "densite": 2417,
    "superficie": 131,
    "communes": 58,
    "habitants": "Dracénois"
  },
  {
    "codeDepartement": 83,
    "insee": 832,
    "name": "Arrondissement de Toulon",
    "chieftown": "Toulon",
    "population": 567852,
    "densite": 1296,
    "superficie": 434,
    "communes": 34,
    "habitants": "Toulonnais"
  },
  {
    "codeDepartement": 84,
    "insee": 841,
    "name": "Arrondissement d'Apt",
    "chieftown": "Apt",
    "population": 128793,
    "densite": 1377,
    "superficie": 93,
    "communes": 56,
    "habitants": ""
  },
  {
    "codeDepartement": 84,
    "insee": 842,
    "name": "Arrondissement d'Avignon",
    "chieftown": "Avignon",
    "population": 214340,
    "densite": 924,
    "superficie": 317,
    "communes": 37,
    "habitants": ""
  },
  {
    "codeDepartement": 84,
    "insee": 843,
    "name": "Arrondissement de Carpentras",
    "chieftown": "Carpentras",
    "population": 215881,
    "densite": 1266,
    "superficie": 102,
    "communes": 58,
    "habitants": ""
  },
  {
    "codeDepartement": 85,
    "insee": 851,
    "name": "Arrondissement de Fontenay-le-Comte",
    "chieftown": "Fontenay-le-Comte",
    "population": 141620,
    "densite": 2129,
    "superficie": 62,
    "communes": 107,
    "habitants": ""
  },
  {
    "codeDepartement": 85,
    "insee": 852,
    "name": "Arrondissement de La Roche-sur-Yon",
    "chieftown": "La Roche-sur-Yon",
    "population": 291623,
    "densite": 2495,
    "superficie": 114,
    "communes": 92,
    "habitants": "Yonnais"
  },
  {
    "codeDepartement": 85,
    "insee": 853,
    "name": "Arrondissement des Sables-d'Olonne",
    "chieftown": "Les Sables-d'Olonne",
    "population": 237354,
    "densite": 2096,
    "superficie": 115,
    "communes": 83,
    "habitants": ""
  },
  {
    "codeDepartement": 86,
    "insee": 861,
    "name": "Arrondissement de Châtellerault",
    "chieftown": "Châtellerault",
    "population": 109345,
    "densite": 2065,
    "superficie": 54,
    "communes": 96,
    "habitants": ""
  },
  {
    "codeDepartement": 86,
    "insee": 862,
    "name": "Arrondissement de Montmorillon",
    "chieftown": "Montmorillon",
    "population": 67025,
    "densite": 3000,
    "superficie": 25,
    "communes": 98,
    "habitants": ""
  },
  {
    "codeDepartement": 86,
    "insee": 863,
    "name": "Arrondissement de Poitiers",
    "chieftown": "Poitiers",
    "population": 259699,
    "densite": 1926,
    "superficie": 127,
    "communes": 87,
    "habitants": ""
  },
  {
    "codeDepartement": 87,
    "insee": 871,
    "name": "Arrondissement de Bellac",
    "chieftown": "Bellac",
    "population": 39204,
    "densite": 1780,
    "superficie": 22,
    "communes": 63,
    "habitants": ""
  },
  {
    "codeDepartement": 87,
    "insee": 872,
    "name": "Arrondissement de Limoges",
    "chieftown": "Limoges",
    "population": 297957,
    "densite": 2945,
    "superficie": 101,
    "communes": 108,
    "habitants": "Limougeaud"
  },
  {
    "codeDepartement": 87,
    "insee": 873,
    "name": "Arrondissement de Rochechouart",
    "chieftown": "Rochechouart",
    "population": 37817,
    "densite": 795,
    "superficie": 48,
    "communes": 30,
    "habitants": ""
  },
  {
    "codeDepartement": 88,
    "insee": 881,
    "name": "Arrondissement de Épinal",
    "chieftown": "Épinal",
    "population": 214314,
    "densite": 3098,
    "superficie": 79,
    "communes": 251,
    "habitants": ""
  },
  {
    "codeDepartement": 88,
    "insee": 882,
    "name": "Arrondissement de Neufchâteau",
    "chieftown": "Neufchâteau",
    "population": 64681,
    "densite": 1611,
    "superficie": 34,
    "communes": 174,
    "habitants": ""
  },
  {
    "codeDepartement": 88,
    "insee": 883,
    "name": "Arrondissement de Saint-Dié-des-Vosges",
    "chieftown": "Saint-Dié-des-Vosges",
    "population": 90646,
    "densite": 1166,
    "superficie": 80,
    "communes": 90,
    "habitants": ""
  },
  {
    "codeDepartement": 89,
    "insee": 891,
    "name": "Arrondissement d'Auxerre",
    "chieftown": "Auxerre",
    "population": 165987,
    "densite": 3515,
    "superficie": 51,
    "communes": 196,
    "habitants": ""
  },
  {
    "codeDepartement": 89,
    "insee": 892,
    "name": "Arrondissement d'Avallon",
    "chieftown": "Avallon",
    "population": 43189,
    "densite": 2209,
    "superficie": 22,
    "communes": 149,
    "habitants": ""
  },
  {
    "codeDepartement": 89,
    "insee": 893,
    "name": "Arrondissement de Sens",
    "chieftown": "Sens",
    "population": 131368,
    "densite": 1704,
    "superficie": 66,
    "communes": 108,
    "habitants": ""
  },
  {
    "codeDepartement": 90,
    "insee": 901,
    "name": "Arrondissement de Belfort",
    "chieftown": "Belfort",
    "population": 144089,
    "densite": 609,
    "superficie": 237,
    "communes": 102,
    "habitants": ""
  },
  {
    "codeDepartement": 91,
    "insee": 911,
    "name": "Arrondissement de Étampes",
    "chieftown": "Étampes",
    "population": 130464,
    "densite": 876,
    "superficie": 161,
    "communes": 79,
    "habitants": ""
  },
  {
    "codeDepartement": 91,
    "insee": 912,
    "name": "Arrondissement de Evry-Courcouronnes",
    "chieftown": "Evry-Courcouronnes",
    "population": 536258,
    "densite": 469,
    "superficie": 1112,
    "communes": 52,
    "habitants": "Évryens"
  },
  {
    "codeDepartement": 91,
    "insee": 913,
    "name": "Arrondissement de Palaiseau",
    "chieftown": "Palaiseau",
    "population": 620608,
    "densite": 459,
    "superficie": 1288,
    "communes": 65,
    "habitants": "Palaisiens"
  },
  {
    "codeDepartement": 92,
    "insee": 921,
    "name": "Arrondissement d'Antony",
    "chieftown": "Antony",
    "population": 396552,
    "densite": 49,
    "superficie": 8575,
    "communes": 12,
    "habitants": "Antoniens"
  },
  {
    "codeDepartement": 92,
    "insee": 923,
    "name": "Arrondissement de Boulogne-Billancourt",
    "chieftown": "Boulogne-Billancourt",
    "population": 318535,
    "densite": 46,
    "superficie": 7055,
    "communes": 9,
    "habitants": "Boulonnais"
  },
  {
    "codeDepartement": 92,
    "insee": 922,
    "name": "Arrondissement de Nanterre",
    "chieftown": "Nanterre",
    "population": 888181,
    "densite": 81,
    "superficie": 10484,
    "communes": 15,
    "habitants": "Nanterrien"
  },
  {
    "codeDepartement": 93,
    "insee": 931,
    "name": "Arrondissement de Bobigny",
    "chieftown": "Bobigny",
    "population": 415958,
    "densite": 66,
    "superficie": 9024,
    "communes": 15,
    "habitants": "Balbynien"
  },
  {
    "codeDepartement": 93,
    "insee": 932,
    "name": "Arrondissement du Raincy",
    "chieftown": "Le Raincy",
    "population": 755392,
    "densite": 123,
    "superficie": 4428,
    "communes": 16,
    "habitants": "Raincéen"
  },
  {
    "codeDepartement": 93,
    "insee": 933,
    "name": "Arrondissement de Saint-Denis",
    "chieftown": "Saint-Denis",
    "population": 435310,
    "densite": 47,
    "superficie": 8737,
    "communes": 9,
    "habitants": "Dionysien"
  },
  {
    "codeDepartement": 94,
    "insee": 941,
    "name": "Arrondissement de Créteil",
    "chieftown": "Créteil",
    "population": 310758,
    "densite": 146,
    "superficie": 4785,
    "communes": 23,
    "habitants": "Cristoliens"
  },
  {
    "codeDepartement": 94,
    "insee": 943,
    "name": "Arrondissement de L'Haÿ-les-Roses",
    "chieftown": "L'Haÿ-les-Roses",
    "population": 558539,
    "densite": 35,
    "superficie": 7346,
    "communes": 10,
    "habitants": "L'Haÿssien"
  },
  {
    "codeDepartement": 94,
    "insee": 942,
    "name": "Arrondissement de Nogent-sur-Marne",
    "chieftown": "Nogent-sur-Marne",
    "population": 508854,
    "densite": 63,
    "superficie": 6225,
    "communes": 14,
    "habitants": "Nogentais"
  },
  {
    "codeDepartement": 95,
    "insee": 951,
    "name": "Arrondissement d'Argenteuil",
    "chieftown": "Argenteuil",
    "population": 412334,
    "densite": 53,
    "superficie": 4432,
    "communes": 7,
    "habitants": "Argenteuillais"
  },
  {
    "codeDepartement": 95,
    "insee": 953,
    "name": "Arrondissement de Pontoise",
    "chieftown": "Pontoise",
    "population": 338425,
    "densite": 828,
    "superficie": 605,
    "communes": 117,
    "habitants": "Pontoisiens"
  },
  {
    "codeDepartement": 95,
    "insee": 952,
    "name": "Arrondissement de Sarcelles",
    "chieftown": "Sarcelles",
    "population": 471164,
    "densite": 364,
    "superficie": 1254,
    "communes": 61,
    "habitants": "Sarcellois"
  },
  {
    "codeDepartement": 971,
    "insee": 9711,
    "name": "Arrondissement de Basse-Terre",
    "chieftown": "Basse-Terre",
    "population": 189210,
    "densite": 854,
    "superficie": 224,
    "communes": 18,
    "habitants": ""
  },
  {
    "codeDepartement": 971,
    "insee": 9712,
    "name": "Arrondissement de Pointe-à-Pitre",
    "chieftown": "Pointe-à-Pitre",
    "population": 204900,
    "densite": 774,
    "superficie": 273,
    "communes": 14,
    "habitants": ""
  },
  {
    "codeDepartement": 972,
    "insee": 9721,
    "name": "Arrondissement de Fort-de-France",
    "chieftown": "Fort-de-France",
    "population": 157449,
    "densite": 171,
    "superficie": 942,
    "communes": 4,
    "habitants": ""
  },
  {
    "codeDepartement": 972,
    "insee": 9723,
    "name": "Arrondissement du Marin",
    "chieftown": "Le Marin",
    "population": 117168,
    "densite": 409,
    "superficie": 293,
    "communes": 12,
    "habitants": ""
  },
  {
    "codeDepartement": 972,
    "insee": 9724,
    "name": "Arrondissement de Saint-Pierre",
    "chieftown": "Saint-Pierre",
    "population": 22926,
    "densite": 210,
    "superficie": 111,
    "communes": 8,
    "habitants": ""
  },
  {
    "codeDepartement": 972,
    "insee": 9722,
    "name": "Arrondissement de La Trinité",
    "chieftown": "La Trinité",
    "population": 78937,
    "densite": 338,
    "superficie": 241,
    "communes": 10,
    "habitants": ""
  },
  {
    "codeDepartement": 973,
    "insee": 9731,
    "name": "Arrondissement de Cayenne",
    "chieftown": "Cayenne",
    "population": 176357,
    "densite": 42589,
    "superficie": 4,
    "communes": 14,
    "habitants": ""
  },
  {
    "codeDepartement": 973,
    "insee": 9732,
    "name": "Arrondissement de Saint-Laurent-du-Maroni",
    "chieftown": "Saint-Laurent-du-Maroni",
    "population": 92995,
    "densite": 40945,
    "superficie": 2,
    "communes": 8,
    "habitants": ""
  },
  {
    "codeDepartement": 974,
    "insee": 9743,
    "name": "Arrondissement de Saint-Benoît",
    "chieftown": "Saint-Benoît",
    "population": 126777,
    "densite": 736,
    "superficie": 169,
    "communes": 6,
    "habitants": ""
  },
  {
    "codeDepartement": 974,
    "insee": 9741,
    "name": "Arrondissement de Saint-Denis",
    "chieftown": "Saint-Denis",
    "population": 204304,
    "densite": 289,
    "superficie": 685,
    "communes": 3,
    "habitants": ""
  },
  {
    "codeDepartement": 974,
    "insee": 9744,
    "name": "Arrondissement de Saint-Paul",
    "chieftown": "Saint-Paul",
    "population": 214073,
    "densite": 467,
    "superficie": 395,
    "communes": 5,
    "habitants": ""
  },
  {
    "codeDepartement": 974,
    "insee": 9742,
    "name": "Arrondissement de Saint-Pierre",
    "chieftown": "Saint-Pierre",
    "population": 307770,
    "densite": 878,
    "superficie": 319,
    "communes": 10,
    "habitants": "Réunionnais"
  },
  {
    "codeDepartement": 976,
    "insee": "-",
    "name": "Arrondissement de Dzaoudzi",
    "chieftown": "Dzaoudzi",
    "population": "256518",
    "densite": 376,
    "superficie": 566,
    "communes": 17,
    "habitants": ""
  }
]